nbands ntot nfix efix loc_fun proj_method spread_mean spread_stdev spread_min spread_max initial functional bs_dist bs_dist_max loc_fun_w90 spread_stdev_w90 spread_min_w90 spread_max_w90 bs_dist_w90 bs_dist_max_w90
193 133 None 0.0 297.8194949369044 None 2.044943237990857 1.1667628855372059 0.1468876689774278 5.452282576847541 orbitals var 0.012251639477662914 0.14184647285561072 None None None None None None
193 133 None 0.0 297.81046644831224 None 2.0483924846713752 1.1569923923737526 0.19968306250539927 4.405364671987293 orbitals var 0.011508853691890052 0.10384126924445684 None None None None None None
193 133 None 0.0 297.88092245671754 None 2.0275221360667732 1.093480109065684 0.14410356449733785 4.031188568539449 orbitals var 0.01199523257834067 0.17244726516420003 None None None None None None
193 133 None 0.0 297.86748631156445 None 2.027810671205214 1.2021534761645258 0.14274664188904435 4.4999919832750885 orbitals var 0.011666906358347212 0.16678272535031963 None None None None None None
193 133 None 0.0 297.8285136845678 None 2.03941454861937 1.2343743261193365 0.2207509248260906 4.631091230888378 orbitals var 0.0120507619308202 0.1787229024749 None None None None None None
