nbands ntot nfix efix loc_fun proj_method spread_mean spread_stdev spread_min spread_max initial functional bs_dist bs_dist_max loc_fun_w90 spread_stdev_w90 spread_min_w90 spread_max_w90 bs_dist_w90 bs_dist_max_w90
196 134 None 0.0 300.28556658082954 None 2.016128487879069 1.8566496004358874 0.14632134148236114 7.302325141096658 orbitals std 0.010057517335284767 0.10687440584905389 None None None None None None
196 134 None 0.0 300.2788105409706 None 2.01749822256119 1.8336303529422933 0.15360587006827464 6.136109025753676 orbitals std 0.009767955493317923 0.08876665406549562 None None None None None None
196 134 None 0.0 300.1750580414771 None 2.0514853978927268 1.8823668979439891 0.15583010594972171 7.729141101856711 orbitals std 0.010329069318247786 0.08682223006746828 None None None None None None
196 134 None 0.0 300.2902807502094 None 2.014588511947749 1.8400114792460136 0.13242265064354747 6.8757422184034915 orbitals std 0.009720706897485073 0.09568302399614684 None None None None None None
196 134 None 0.0 300.2834173658164 None 2.015603989590379 1.824586300727998 0.17101055520951589 6.1627293098549325 orbitals std 0.009550218509923816 0.09894298998950982 None None None None None None
