nbands ntot nfix efix loc_fun proj_method spread_mean spread_stdev spread_min spread_max initial functional bs_dist bs_dist_max loc_fun_w90 spread_stdev_w90 spread_min_w90 spread_max_w90 bs_dist_w90 bs_dist_max_w90
196 134 None 0.0 300.1116292712784 None 2.0290303737276707 1.13164940527054 0.24196775992997543 4.010213834096154 orbitals var 0.009899648252324427 0.08199878148792157 None None None None None None
196 134 None 0.0 300.1189170719852 None 2.0246699073012637 1.1918285251679805 0.1977113750344366 5.4031055929319445 orbitals var 0.009994780847209936 0.08677975380964208 None None None None None None
196 134 None 0.0 300.0304916093788 None 2.054603728776681 1.1511932289894249 0.172402947750364 4.213806222444674 orbitals var 0.01024052330100451 0.09959498057183358 None None None None None None
196 134 None 0.0 300.0782784832526 None 2.033440785257493 1.2998337417473047 0.15430670477453653 4.867128477439181 orbitals var 0.009398986692785622 0.08870418408315954 None None None None None None
196 134 None 0.0 300.0679896453913 None 2.035055670904887 1.3277300176092437 0.2046106828270832 4.706019248458547 orbitals var 0.00961073547067456 0.08957039183710194 None None None None None None
